4981835 1 1.00 3.00 3.05 2 17 2 3 20 2004667991 1080961275 3.815369 -8.944073 -9.512888 -1.870505 -0.157393 3.804399 -0.660028 0.518844 -0.543290 113.888720 2 114.60 4.32 
5476699 1 1.00 3.00 3.05 2 20 2 2 20 277300631 1084253483 3.803243 -8.927723 -9.519725 -1.783892 -0.155876 3.839550 -0.659597 0.521754 -0.541022 113.944813 2 113.67 4.67 
5115795 1 1.00 3.00 3.05 2 12 2 3 20 2089819421 1081727315 3.799866 -8.918095 -9.521024 -1.767537 -0.111380 3.808518 -0.666481 0.515224 -0.538838 113.620465 2 114.70 6.79 
4999171 1 1.00 3.00 3.05 2 10 2 2 20 2005721422 1081067921 3.846362 -8.916045 -9.519074 -1.811947 -0.087934 3.867113 0.671460 -0.508257 0.539275 -113.482538 2 114.72 6.83 
4780107 1 1.00 3.00 3.05 2 17 2 1 20 1858783311 1079850326 3.679551 -8.915214 -9.463817 -1.806618 -0.270768 3.530390 0.626542 -0.547660 0.554539 -112.690859 2 119.38 9.93 
4871515 1 1.00 3.00 3.05 2 11 2 5 20 1916029908 1080337643 3.815252 -8.914660 -9.521539 -1.823313 -0.133300 3.812151 0.659767 -0.515328 0.546941 -113.250995 2 113.76 6.10 
4851027 1 1.00 3.00 3.05 2 16 2 1 20 1897607810 1080228692 3.815425 -8.914024 -9.530828 -1.790503 -0.134982 3.836823 0.661562 -0.514583 0.545471 -113.458558 2 112.84 5.59 
5240299 1 1.00 3.00 3.05 2 3 2 4 20 42492918 1082399182 3.825508 -8.910468 -9.527064 -1.747499 -0.099998 3.870241 0.670807 -0.510839 0.537644 -113.555669 2 113.80 6.80 
4877819 1 1.00 3.00 3.05 2 16 2 4 20 1928568422 1080373559 3.812965 -8.908639 -9.523627 -1.815255 -0.107598 3.792379 0.665041 -0.508782 0.546682 -113.114276 2 113.25 6.60 
4903035 1 1.00 3.00 3.05 2 4 2 4 20 1942777456 1080514377 3.826471 -8.908559 -9.524837 -1.782228 -0.118698 3.854753 -0.668779 0.510491 -0.540494 113.239074 2 113.59 6.64 
4893579 1 1.00 3.00 3.05 2 1 2 5 20 1931697580 1080462258 3.793285 -8.906216 -9.535516 -1.723016 -0.146585 3.837751 0.661084 -0.517168 0.543604 -113.535425 2 111.92 5.59 
5449907 1 1.00 3.00 3.05 2 11 2 4 20 240487996 1084069117 3.794816 -8.904309 -9.533610 -1.730757 -0.101240 3.809720 -0.666593 0.511526 -0.542213 113.472730 2 112.88 6.80 
4783259 1 1.00 3.00 3.05 2 12 2 1 20 1860258146 1079868451 3.827004 -8.902610 -9.531843 -1.739515 -0.110855 3.879445 0.667371 -0.511129 0.541630 -113.335366 2 112.83 6.75 
5134707 1 1.00 3.00 3.05 2 7 2 2 20 2109971158 1081832374 3.801629 -8.899932 -9.515129 -1.723262 -0.073384 3.806266 -0.671172 0.508939 -0.538990 113.206940 2 114.72 8.89 
4825811 1 1.00 3.00 3.05 2 8 2 5 20 1879979607 1080090473 3.810355 -8.899739 -9.532501 -1.732171 -0.095976 3.835204 -0.667646 0.509086 -0.543213 113.197115 2 112.74 7.36 
5326979 1 1.00 3.00 3.05 2 19 2 4 20 88032086 1082879349 3.813982 -8.899111 -9.531345 -1.727416 -0.098806 3.848397 -0.667055 0.509634 -0.543425 113.223798 2 112.57 7.23 
5022811 1 1.00 3.00 3.05 2 15 2 4 20 2023145629 1081202657 3.821623 -8.898224 -9.527477 -1.848503 -0.159648 3.803942 0.669055 -0.506184 0.544190 -112.232158 2 112.81 6.73 
4920371 1 1.00 3.00 3.05 2 6 2 5 20 1946338465 1080612140 3.803529 -8.895298 -9.536222 -1.754211 -0.121901 3.818343 -0.661480 0.511536 -0.548430 112.973923 2 111.86 6.69 
5426267 1 1.00 3.00 3.05 2 18 2 1 20 216558356 1083762097 3.811832 -8.895258 -9.474661 -1.892603 -0.177403 3.733747 0.633891 -0.527741 0.565395 -112.116106 2 117.45 10.00 
5100035 1 1.00 3.00 3.05 2 18 2 5 20 2085556162 1081635830 3.815592 -8.893979 -9.536062 -1.808721 -0.145783 3.816214 -0.655742 0.511672 -0.555153 112.781616 2 111.05 5.76 
